…
df3<-tibble(ID=seq_len(200))%>%
  mutate(Cluster = "C3",
         Gender=sample(c("M", "F"), n(), replace=TRUE, prob=c(0.2, 0.8)),
         Type=sample(c("A", "B", "C", "D"), n(), replace=TRUE, prob=c(0.5, 0.3, 0.1, 0.1)),
         Category=sample(c("High", "Medium", "Low"), n(), replace=TRUE, prob=c(0.1, 0.2, 0.7)))

df<-rbind.data.frame(df1, df2, df3)

df
 

# A tibble: 1,000 x 5
      ID Cluster Gender Type  Category
             
 1     1 C1      M      C     Medium  
 2     2 C1      F      C     Medium  
 3     3 C1      F      C     Medium  
 4     4 C1      M      B     Low     
 5     5 C1      M      B     Low     
 6     6 C1      F      C     Medium  
 7     7 C1      M      C     Medium  
 8     8 C1      F      B     High    
 9     9 C1      F      C     Medium  
10    10 C1      M      A     Medium  
# ... with 990 more rows
…
